Black: e2 -> e4
White: b7 -> b6
Black: d1 -> f3
White: b6 -> b5
Black: f3 -> f7
White: e8 -> f7
Black: e4 -> e5
White: f7 -> e6
Black: f2 -> f3
White: e6 -> e5
Black: d2 -> d3
White: e5 -> d4
Black: c2 -> c3
White: d4 -> e3
Black: c1 -> e3
White: g7 -> g6
Black: f3 -> f4
White: g6 -> g5
Black: f4 -> f5
White: g5 -> g4
Black: f5 -> f6
White: g4 -> g3
Black: f6 -> f7
